EESchema Schematic File Version 4
EELAYER 30 0
EELAYER END
$Descr A4 11693 8268
encoding utf-8
Sheet 1 1
Title "model train captor"
Date "2020-09-26"
Rev "0.0"
Comp ""
Comment1 "based on schema found here : https://www.youtube.com/watch?v=mrb9soMySXE "
Comment2 "at chrono 19:30 & keeping it in sizings at chrono 23:00"
Comment3 ""
Comment4 ""
$EndDescr
$Comp
L Connector:Screw_Terminal_01x03 J1
U 1 1 5F6F7412
P 1550 1500
F 0 "J1" H 1468 1175 50  0000 C CNN
F 1 "POWER_01x03" H 1468 1266 50  0000 C CNN
F 2 "TerminalBlock:TerminalBlock_bornier-3_P5.08mm" H 1550 1500 50  0001 C CNN
F 3 "~" H 1550 1500 50  0001 C CNN
	1    1550 1500
	-1   0    0    1   
$EndComp
$Comp
L Device:CP1_Small C1
U 1 1 5F6F88F2
P 2350 1300
F 0 "C1" H 2441 1346 50  0000 L CNN
F 1 "47µ" H 2441 1255 50  0000 L CNN
F 2 "Capacitor_SMD:CP_Elec_4x3" H 2350 1300 50  0001 C CNN
F 3 "~" H 2350 1300 50  0001 C CNN
	1    2350 1300
	1    0    0    -1  
$EndComp
$Comp
L Device:CP1_Small C2
U 1 1 5F6F9109
P 2350 1700
F 0 "C2" H 2441 1746 50  0000 L CNN
F 1 "47µ" H 2441 1655 50  0000 L CNN
F 2 "Capacitor_SMD:CP_Elec_4x3" H 2350 1700 50  0001 C CNN
F 3 "~" H 2350 1700 50  0001 C CNN
	1    2350 1700
	1    0    0    -1  
$EndComp
$Comp
L Device:C_Small C3
U 1 1 5F6F9432
P 2700 1300
F 0 "C3" H 2792 1346 50  0000 L CNN
F 1 "100n" H 2792 1255 50  0000 L CNN
F 2 "Capacitor_SMD:C_1206_3216Metric" H 2700 1300 50  0001 C CNN
F 3 "~" H 2700 1300 50  0001 C CNN
	1    2700 1300
	1    0    0    -1  
$EndComp
$Comp
L Device:C_Small C4
U 1 1 5F6F9718
P 2700 1700
F 0 "C4" H 2792 1746 50  0000 L CNN
F 1 "100n" H 2792 1655 50  0000 L CNN
F 2 "Capacitor_SMD:C_1206_3216Metric" H 2700 1700 50  0001 C CNN
F 3 "~" H 2700 1700 50  0001 C CNN
	1    2700 1700
	1    0    0    -1  
$EndComp
$Comp
L Amplifier_Operational:TL082 U1
U 3 1 5F6F9B8F
P 3200 1500
F 0 "U1" H 3150 1700 50  0000 L CNN
F 1 "TL082" H 3150 1600 50  0000 L CNN
F 2 "Package_DIP:DIP-8_W7.62mm_LongPads" H 3200 1500 50  0001 C CNN
F 3 "http://www.ti.com/lit/ds/symlink/tl081.pdf" H 3200 1500 50  0001 C CNN
	3    3200 1500
	1    0    0    -1  
$EndComp
Wire Wire Line
	3100 1200 3100 1150
Wire Wire Line
	3100 1150 3050 1150
Wire Wire Line
	2150 1150 2150 1400
Wire Wire Line
	2150 1400 1750 1400
Wire Wire Line
	1750 1600 2150 1600
Wire Wire Line
	2150 1600 2150 1850
Wire Wire Line
	2150 1850 2200 1850
Wire Wire Line
	3100 1850 3100 1800
Wire Wire Line
	2700 1800 2700 1850
Connection ~ 2700 1850
Wire Wire Line
	2700 1850 3050 1850
Wire Wire Line
	2350 1800 2350 1850
Connection ~ 2350 1850
Wire Wire Line
	2350 1850 2700 1850
Wire Wire Line
	2350 1600 2350 1500
Wire Wire Line
	2350 1200 2350 1150
Connection ~ 2350 1150
Wire Wire Line
	2350 1150 2200 1150
Wire Wire Line
	2700 1200 2700 1150
Connection ~ 2700 1150
Wire Wire Line
	2700 1150 2350 1150
Wire Wire Line
	2700 1400 2700 1500
Wire Wire Line
	1750 1500 2350 1500
Connection ~ 2350 1500
Wire Wire Line
	2350 1500 2350 1400
Wire Wire Line
	2350 1500 2700 1500
Connection ~ 2700 1500
Wire Wire Line
	2700 1500 2700 1600
$Comp
L power:GND #PWR03
U 1 1 5F6FC6E3
P 3650 1600
F 0 "#PWR03" H 3650 1350 50  0001 C CNN
F 1 "GND" H 3655 1427 50  0000 C CNN
F 2 "" H 3650 1600 50  0001 C CNN
F 3 "" H 3650 1600 50  0001 C CNN
	1    3650 1600
	1    0    0    -1  
$EndComp
Wire Wire Line
	3650 1600 3650 1500
Wire Wire Line
	3650 1500 3600 1500
$Comp
L power:PWR_FLAG #FLG01
U 1 1 5F6FD0C0
P 2200 1150
F 0 "#FLG01" H 2200 1225 50  0001 C CNN
F 1 "PWR_FLAG" H 2200 1323 50  0000 C CNN
F 2 "" H 2200 1150 50  0001 C CNN
F 3 "~" H 2200 1150 50  0001 C CNN
	1    2200 1150
	1    0    0    -1  
$EndComp
Connection ~ 2200 1150
Wire Wire Line
	2200 1150 2150 1150
$Comp
L power:PWR_FLAG #FLG02
U 1 1 5F6FD352
P 2200 1850
F 0 "#FLG02" H 2200 1925 50  0001 C CNN
F 1 "PWR_FLAG" H 2200 2023 50  0000 C CNN
F 2 "" H 2200 1850 50  0001 C CNN
F 3 "~" H 2200 1850 50  0001 C CNN
	1    2200 1850
	-1   0    0    1   
$EndComp
Connection ~ 2200 1850
Wire Wire Line
	2200 1850 2350 1850
$Comp
L power:PWR_FLAG #FLG03
U 1 1 5F6FD865
P 3600 1500
F 0 "#FLG03" H 3600 1575 50  0001 C CNN
F 1 "PWR_FLAG" H 3750 1650 50  0000 C CNN
F 2 "" H 3600 1500 50  0001 C CNN
F 3 "~" H 3600 1500 50  0001 C CNN
	1    3600 1500
	1    0    0    -1  
$EndComp
Connection ~ 3600 1500
Wire Wire Line
	3600 1500 2700 1500
Wire Wire Line
	3050 1050 3050 1150
Connection ~ 3050 1150
Wire Wire Line
	3050 1150 2700 1150
$Comp
L power:-15V #PWR02
U 1 1 5F6FF4C6
P 3050 1900
F 0 "#PWR02" H 3050 2000 50  0001 C CNN
F 1 "-15V" H 3065 2073 50  0000 C CNN
F 2 "" H 3050 1900 50  0001 C CNN
F 3 "" H 3050 1900 50  0001 C CNN
	1    3050 1900
	-1   0    0    1   
$EndComp
Wire Wire Line
	3050 1900 3050 1850
Connection ~ 3050 1850
Wire Wire Line
	3050 1850 3100 1850
$Comp
L power:+15V #PWR01
U 1 1 5F700707
P 3050 1050
F 0 "#PWR01" H 3050 900 50  0001 C CNN
F 1 "+15V" H 3065 1223 50  0000 C CNN
F 2 "" H 3050 1050 50  0001 C CNN
F 3 "" H 3050 1050 50  0001 C CNN
	1    3050 1050
	1    0    0    -1  
$EndComp
$Comp
L Timer:NE555D U2
U 1 1 5F701441
P 7650 1700
F 0 "U2" H 7750 2200 50  0000 C CNN
F 1 "NE555D" H 7850 2100 50  0000 C CNN
F 2 "Package_SO:SOIC-8_3.9x4.9mm_P1.27mm" H 8500 1300 50  0001 C CNN
F 3 "http://www.ti.com/lit/ds/symlink/ne555.pdf" H 8500 1300 50  0001 C CNN
	1    7650 1700
	1    0    0    -1  
$EndComp
$Comp
L power:+15V #PWR07
U 1 1 5F701F51
P 7650 1050
F 0 "#PWR07" H 7650 900 50  0001 C CNN
F 1 "+15V" H 7665 1223 50  0000 C CNN
F 2 "" H 7650 1050 50  0001 C CNN
F 3 "" H 7650 1050 50  0001 C CNN
	1    7650 1050
	1    0    0    -1  
$EndComp
Wire Wire Line
	7650 1300 7650 1150
$Comp
L power:GND #PWR06
U 1 1 5F70297C
P 7000 1200
F 0 "#PWR06" H 7000 950 50  0001 C CNN
F 1 "GND" H 7005 1027 50  0000 C CNN
F 2 "" H 7000 1200 50  0001 C CNN
F 3 "" H 7000 1200 50  0001 C CNN
	1    7000 1200
	1    0    0    -1  
$EndComp
$Comp
L Device:C_Small C6
U 1 1 5F702FFF
P 7300 1150
F 0 "C6" V 7071 1150 50  0000 C CNN
F 1 "100n" V 7162 1150 50  0000 C CNN
F 2 "Capacitor_SMD:C_1206_3216Metric" H 7300 1150 50  0001 C CNN
F 3 "~" H 7300 1150 50  0001 C CNN
	1    7300 1150
	0    1    1    0   
$EndComp
Wire Wire Line
	7000 1200 7000 1150
Wire Wire Line
	7000 1150 7200 1150
Wire Wire Line
	7400 1150 7650 1150
Connection ~ 7650 1150
Wire Wire Line
	7650 1150 7650 1050
$Comp
L Device:C_Small C5
U 1 1 5F7044C1
P 6700 1900
F 0 "C5" H 6950 1850 50  0000 R CNN
F 1 "10n" H 6950 1950 50  0000 R CNN
F 2 "Capacitor_SMD:C_1206_3216Metric" H 6700 1900 50  0001 C CNN
F 3 "~" H 6700 1900 50  0001 C CNN
	1    6700 1900
	-1   0    0    1   
$EndComp
$Comp
L power:GND #PWR04
U 1 1 5F704F25
P 6700 2200
F 0 "#PWR04" H 6700 1950 50  0001 C CNN
F 1 "GND" H 6705 2027 50  0000 C CNN
F 2 "" H 6700 2200 50  0001 C CNN
F 3 "" H 6700 2200 50  0001 C CNN
	1    6700 2200
	1    0    0    -1  
$EndComp
Wire Wire Line
	7150 1700 6700 1700
Wire Wire Line
	6700 1700 6700 1800
$Comp
L power:+15V #PWR05
U 1 1 5F706347
P 6950 1850
F 0 "#PWR05" H 6950 1700 50  0001 C CNN
F 1 "+15V" H 7050 1850 50  0000 C CNN
F 2 "" H 6950 1850 50  0001 C CNN
F 3 "" H 6950 1850 50  0001 C CNN
	1    6950 1850
	1    0    0    -1  
$EndComp
Wire Wire Line
	6950 1850 6950 1900
Wire Wire Line
	6950 1900 7150 1900
$Comp
L power:GND #PWR08
U 1 1 5F706CD4
P 7650 2200
F 0 "#PWR08" H 7650 1950 50  0001 C CNN
F 1 "GND" H 7655 2027 50  0000 C CNN
F 2 "" H 7650 2200 50  0001 C CNN
F 3 "" H 7650 2200 50  0001 C CNN
	1    7650 2200
	1    0    0    -1  
$EndComp
Wire Wire Line
	7650 2100 7650 2200
Wire Wire Line
	6700 2000 6700 2200
Wire Wire Line
	7150 1500 6350 1500
Wire Wire Line
	6350 1500 6350 2550
Wire Wire Line
	6350 2550 8300 2550
Wire Wire Line
	8300 2550 8300 2500
Wire Wire Line
	8300 1900 8150 1900
$Comp
L Device:C_Small C7
U 1 1 5F70A4D1
P 8750 2650
F 0 "C7" H 9000 2600 50  0000 R CNN
F 1 "1.5n" H 9000 2700 50  0000 R CNN
F 2 "Capacitor_SMD:C_1206_3216Metric" H 8750 2650 50  0001 C CNN
F 3 "~" H 8750 2650 50  0001 C CNN
	1    8750 2650
	-1   0    0    1   
$EndComp
$Comp
L Device:R_US R2
U 1 1 5F70B2B6
P 8750 2300
F 0 "R2" H 8818 2346 50  0000 L CNN
F 1 "41.2k" H 8818 2255 50  0000 L CNN
F 2 "Resistor_SMD:R_1206_3216Metric" V 8790 2290 50  0001 C CNN
F 3 "~" H 8750 2300 50  0001 C CNN
	1    8750 2300
	1    0    0    -1  
$EndComp
$Comp
L Device:R_US R1
U 1 1 5F70BA6F
P 8750 1500
F 0 "R1" H 8818 1546 50  0000 L CNN
F 1 "3.3k" H 8818 1455 50  0000 L CNN
F 2 "Resistor_SMD:R_1206_3216Metric" V 8790 1490 50  0001 C CNN
F 3 "~" H 8750 1500 50  0001 C CNN
	1    8750 1500
	1    0    0    -1  
$EndComp
$Comp
L Device:R_POT_US RV1
U 1 1 5F70C8F3
P 8750 1900
F 0 "RV1" H 8682 1946 50  0000 R CNN
F 1 "10k" H 8682 1855 50  0000 R CNN
F 2 "Potentiometer_SMD:Potentiometer_Bourns_3314G_Vertical" H 8750 1900 50  0001 C CNN
F 3 "~" H 8750 1900 50  0001 C CNN
	1    8750 1900
	-1   0    0    -1  
$EndComp
$Comp
L power:+15V #PWR09
U 1 1 5F70F0AC
P 8750 1250
F 0 "#PWR09" H 8750 1100 50  0001 C CNN
F 1 "+15V" H 8765 1423 50  0000 C CNN
F 2 "" H 8750 1250 50  0001 C CNN
F 3 "" H 8750 1250 50  0001 C CNN
	1    8750 1250
	1    0    0    -1  
$EndComp
Wire Wire Line
	8750 1250 8750 1350
Wire Wire Line
	8750 1650 8750 1700
Wire Wire Line
	8600 1900 8500 1900
Wire Wire Line
	8500 1900 8500 2100
Wire Wire Line
	8500 2100 8750 2100
Wire Wire Line
	8750 2100 8750 2050
Wire Wire Line
	8750 2100 8750 2150
Connection ~ 8750 2100
Wire Wire Line
	8750 2450 8750 2500
$Comp
L power:GND #PWR010
U 1 1 5F713916
P 8750 2850
F 0 "#PWR010" H 8750 2600 50  0001 C CNN
F 1 "GND" H 8755 2677 50  0000 C CNN
F 2 "" H 8750 2850 50  0001 C CNN
F 3 "" H 8750 2850 50  0001 C CNN
	1    8750 2850
	1    0    0    -1  
$EndComp
Wire Wire Line
	8750 2750 8750 2850
Wire Wire Line
	8150 1700 8750 1700
Connection ~ 8750 1700
Wire Wire Line
	8750 1700 8750 1750
$Comp
L Device:R_US R3
U 1 1 5F715869
P 9300 1250
F 0 "R3" H 9368 1296 50  0000 L CNN
F 1 "330" H 9368 1205 50  0000 L CNN
F 2 "Resistor_SMD:R_1206_3216Metric" V 9340 1240 50  0001 C CNN
F 3 "~" H 9300 1250 50  0001 C CNN
	1    9300 1250
	1    0    0    -1  
$EndComp
$Comp
L Connector:TestPoint TP1
U 1 1 5F715EA7
P 9300 900
F 0 "TP1" H 9358 1018 50  0000 L CNN
F 1 "Vast" H 9358 927 50  0000 L CNN
F 2 "Connector_Pin:Pin_D1.1mm_L10.2mm_W3.5mm_Flat" H 9500 900 50  0001 C CNN
F 3 "~" H 9500 900 50  0001 C CNN
	1    9300 900 
	1    0    0    -1  
$EndComp
$Comp
L Device:LED D1
U 1 1 5F716688
P 9300 1700
F 0 "D1" V 9339 1582 50  0000 R CNN
F 1 "IR_E_LED" V 9248 1582 50  0000 R CNN
F 2 "Connector_PinHeader_2.54mm:PinHeader_1x02_P2.54mm_Vertical" H 9300 1700 50  0001 C CNN
F 3 "~" H 9300 1700 50  0001 C CNN
	1    9300 1700
	0    -1   -1   0   
$EndComp
$Comp
L power:GND #PWR011
U 1 1 5F71695E
P 9300 1950
F 0 "#PWR011" H 9300 1700 50  0001 C CNN
F 1 "GND" H 9305 1777 50  0000 C CNN
F 2 "" H 9300 1950 50  0001 C CNN
F 3 "" H 9300 1950 50  0001 C CNN
	1    9300 1950
	1    0    0    -1  
$EndComp
Wire Wire Line
	9300 1850 9300 1950
Wire Wire Line
	9300 1550 9300 1400
Wire Wire Line
	9300 900  9300 950 
Wire Wire Line
	8150 1500 8300 1500
Wire Wire Line
	8300 1500 8300 950 
Wire Wire Line
	8300 950  9300 950 
Connection ~ 9300 950 
Wire Wire Line
	9300 950  9300 1100
Wire Wire Line
	8300 2500 8750 2500
Connection ~ 8300 2500
Wire Wire Line
	8300 2500 8300 1900
Connection ~ 8750 2500
Wire Wire Line
	8750 2500 8750 2550
$Comp
L Amplifier_Operational:TL082 U1
U 1 1 5F7270DE
P 1500 4900
F 0 "U1" H 1500 5267 50  0000 C CNN
F 1 "TL082" H 1500 5176 50  0000 C CNN
F 2 "Package_DIP:DIP-8_W7.62mm_LongPads" H 1500 4900 50  0001 C CNN
F 3 "http://www.ti.com/lit/ds/symlink/tl081.pdf" H 1500 4900 50  0001 C CNN
	1    1500 4900
	1    0    0    -1  
$EndComp
$Comp
L Amplifier_Operational:TL082 U1
U 2 1 5F728419
P 4700 5000
F 0 "U1" H 4700 5367 50  0000 C CNN
F 1 "TL082" H 4700 5276 50  0000 C CNN
F 2 "Package_DIP:DIP-8_W7.62mm_LongPads" H 4700 5000 50  0001 C CNN
F 3 "http://www.ti.com/lit/ds/symlink/tl081.pdf" H 4700 5000 50  0001 C CNN
	2    4700 5000
	1    0    0    -1  
$EndComp
$Comp
L Device:R_US R4
U 1 1 5F72EBE7
P 1450 5400
F 0 "R4" V 1245 5400 50  0000 C CNN
F 1 "100k" V 1336 5400 50  0000 C CNN
F 2 "Resistor_SMD:R_1206_3216Metric" V 1490 5390 50  0001 C CNN
F 3 "~" H 1450 5400 50  0001 C CNN
	1    1450 5400
	0    1    1    0   
$EndComp
$Comp
L Device:C_Small C8
U 1 1 5F72F9DA
P 1450 5750
F 0 "C8" V 1221 5750 50  0000 C CNN
F 1 "10p" V 1312 5750 50  0000 C CNN
F 2 "Capacitor_SMD:C_0805_2012Metric" H 1450 5750 50  0001 C CNN
F 3 "~" H 1450 5750 50  0001 C CNN
	1    1450 5750
	0    1    1    0   
$EndComp
$Comp
L Sensor_Optical:SFH203 D2
U 1 1 5F730881
P 1000 6150
F 0 "D2" V 904 6308 50  0000 L CNN
F 1 "SFH203" V 995 6308 50  0000 L CNN
F 2 "Connector_PinHeader_2.54mm:PinHeader_1x02_P2.54mm_Vertical" H 1000 6325 50  0001 C CNN
F 3 "http://www.osram-os.com/Graphics/XPic9/00101656_0.pdf/SFH%20203,%20SFH%20203%20FA,%20Lead%20(Pb)%20Free%20Product%20-%20RoHS%20Compliant.pdf" H 950 6150 50  0001 C CNN
	1    1000 6150
	0    1    1    0   
$EndComp
$Comp
L power:-15V #PWR013
U 1 1 5F731392
P 1000 6450
F 0 "#PWR013" H 1000 6550 50  0001 C CNN
F 1 "-15V" H 1015 6623 50  0000 C CNN
F 2 "" H 1000 6450 50  0001 C CNN
F 3 "" H 1000 6450 50  0001 C CNN
	1    1000 6450
	-1   0    0    1   
$EndComp
Wire Wire Line
	1000 6450 1000 6250
Wire Wire Line
	1000 5950 1000 5750
Wire Wire Line
	1000 5000 1200 5000
Wire Wire Line
	1300 5400 1000 5400
Connection ~ 1000 5400
Wire Wire Line
	1000 5400 1000 5000
Wire Wire Line
	1350 5750 1000 5750
Connection ~ 1000 5750
Wire Wire Line
	1000 5750 1000 5400
Wire Wire Line
	1550 5750 2000 5750
Wire Wire Line
	2000 5750 2000 5400
Wire Wire Line
	2000 4900 1950 4900
Wire Wire Line
	1600 5400 2000 5400
Connection ~ 2000 5400
Wire Wire Line
	2000 5400 2000 4900
$Comp
L power:GND #PWR012
U 1 1 5F73B239
P 750 5000
F 0 "#PWR012" H 750 4750 50  0001 C CNN
F 1 "GND" H 755 4827 50  0000 C CNN
F 2 "" H 750 5000 50  0001 C CNN
F 3 "" H 750 5000 50  0001 C CNN
	1    750  5000
	1    0    0    -1  
$EndComp
Wire Wire Line
	1200 4800 750  4800
Wire Wire Line
	750  4800 750  5000
$Comp
L Connector:TestPoint TP2
U 1 1 5F73DABC
P 1950 4650
F 0 "TP2" H 2008 4768 50  0000 L CNN
F 1 "Viu" H 2008 4677 50  0000 L CNN
F 2 "Connector_Pin:Pin_D1.1mm_L10.2mm_W3.5mm_Flat" H 2150 4650 50  0001 C CNN
F 3 "~" H 2150 4650 50  0001 C CNN
	1    1950 4650
	1    0    0    -1  
$EndComp
Wire Wire Line
	1950 4650 1950 4900
Connection ~ 1950 4900
Wire Wire Line
	1950 4900 1800 4900
$Comp
L Device:L_Core_Ferrite L1
U 1 1 5F740D9F
P 2600 4900
F 0 "L1" V 2419 4900 50  0000 C CNN
F 1 "22m" V 2510 4900 50  0000 C CNN
F 2 "Inductor_THT:L_Axial_L6.6mm_D2.7mm_P10.16mm_Horizontal_Vishay_IM-2" H 2600 4900 50  0001 C CNN
F 3 "~" H 2600 4900 50  0001 C CNN
	1    2600 4900
	0    1    1    0   
$EndComp
$Comp
L Device:C_Small C9
U 1 1 5F741598
P 3100 4900
F 0 "C9" V 2871 4900 50  0000 C CNN
F 1 "10p" V 2962 4900 50  0000 C CNN
F 2 "Capacitor_SMD:C_0805_2012Metric" H 3100 4900 50  0001 C CNN
F 3 "~" H 3100 4900 50  0001 C CNN
	1    3100 4900
	0    1    1    0   
$EndComp
$Comp
L Device:C_Small C10
U 1 1 5F741928
P 3100 5250
F 0 "C10" V 2871 5250 50  0000 C CNN
F 1 "1p" V 2962 5250 50  0000 C CNN
F 2 "Capacitor_SMD:C_0805_2012Metric" H 3100 5250 50  0001 C CNN
F 3 "~" H 3100 5250 50  0001 C CNN
	1    3100 5250
	0    1    1    0   
$EndComp
$Comp
L Connector:TestPoint TP3
U 1 1 5F741D63
P 3500 4650
F 0 "TP3" H 3558 4768 50  0000 L CNN
F 1 "Vf" H 3558 4677 50  0000 L CNN
F 2 "Connector_Pin:Pin_D1.1mm_L10.2mm_W3.5mm_Flat" H 3700 4650 50  0001 C CNN
F 3 "~" H 3700 4650 50  0001 C CNN
	1    3500 4650
	1    0    0    -1  
$EndComp
$Comp
L Device:R_US R5
U 1 1 5F742715
P 3550 5150
F 0 "R5" H 3482 5104 50  0000 R CNN
F 1 "100" H 3482 5195 50  0000 R CNN
F 2 "Resistor_SMD:R_1206_3216Metric" V 3590 5140 50  0001 C CNN
F 3 "~" H 3550 5150 50  0001 C CNN
	1    3550 5150
	-1   0    0    1   
$EndComp
$Comp
L power:GND #PWR014
U 1 1 5F742D6D
P 3550 5500
F 0 "#PWR014" H 3550 5250 50  0001 C CNN
F 1 "GND" H 3555 5327 50  0000 C CNN
F 2 "" H 3550 5500 50  0001 C CNN
F 3 "" H 3550 5500 50  0001 C CNN
	1    3550 5500
	1    0    0    -1  
$EndComp
Wire Wire Line
	3500 4650 3500 4900
Wire Wire Line
	3550 5300 3550 5500
Wire Wire Line
	3500 4900 3300 4900
Wire Wire Line
	3550 4900 3550 5000
Wire Wire Line
	3300 4900 3300 5250
Wire Wire Line
	3300 5250 3200 5250
Connection ~ 3300 4900
Wire Wire Line
	3300 4900 3200 4900
Wire Wire Line
	3000 5250 2900 5250
Wire Wire Line
	2900 5250 2900 4900
Wire Wire Line
	2900 4900 3000 4900
Wire Wire Line
	2900 4900 2750 4900
Connection ~ 2900 4900
Wire Wire Line
	2450 4900 2000 4900
Connection ~ 2000 4900
Wire Wire Line
	3550 4900 3500 4900
Connection ~ 3500 4900
Wire Wire Line
	3550 4900 4400 4900
Connection ~ 3550 4900
$Comp
L Device:R_US R7
U 1 1 5F75EA5C
P 4650 5450
F 0 "R7" V 4445 5450 50  0000 C CNN
F 1 "82k" V 4536 5450 50  0000 C CNN
F 2 "Resistor_SMD:R_1206_3216Metric" V 4690 5440 50  0001 C CNN
F 3 "~" H 4650 5450 50  0001 C CNN
	1    4650 5450
	0    1    1    0   
$EndComp
$Comp
L Device:R_US R6
U 1 1 5F75ED5D
P 4300 5750
F 0 "R6" H 4232 5704 50  0000 R CNN
F 1 "10k" H 4232 5795 50  0000 R CNN
F 2 "Resistor_SMD:R_1206_3216Metric" V 4340 5740 50  0001 C CNN
F 3 "~" H 4300 5750 50  0001 C CNN
	1    4300 5750
	-1   0    0    1   
$EndComp
$Comp
L power:GND #PWR015
U 1 1 5F75F1C1
P 4300 6050
F 0 "#PWR015" H 4300 5800 50  0001 C CNN
F 1 "GND" H 4305 5877 50  0000 C CNN
F 2 "" H 4300 6050 50  0001 C CNN
F 3 "" H 4300 6050 50  0001 C CNN
	1    4300 6050
	1    0    0    -1  
$EndComp
Wire Wire Line
	4400 5100 4300 5100
Wire Wire Line
	4300 5100 4300 5450
Wire Wire Line
	4300 5450 4500 5450
Connection ~ 4300 5450
Wire Wire Line
	4300 5450 4300 5600
Wire Wire Line
	4800 5450 5250 5450
Wire Wire Line
	5250 5450 5250 5000
Wire Wire Line
	5250 5000 5200 5000
Wire Wire Line
	4300 5900 4300 6050
$Comp
L Connector:TestPoint TP4
U 1 1 5F76B83E
P 5200 4650
F 0 "TP4" H 5258 4768 50  0000 L CNN
F 1 "Va" H 5258 4677 50  0000 L CNN
F 2 "Connector_Pin:Pin_D1.1mm_L10.2mm_W3.5mm_Flat" H 5400 4650 50  0001 C CNN
F 3 "~" H 5400 4650 50  0001 C CNN
	1    5200 4650
	1    0    0    -1  
$EndComp
Wire Wire Line
	5200 4650 5200 5000
Connection ~ 5200 5000
Wire Wire Line
	5200 5000 5000 5000
Wire Notes Line
	5350 4400 5350 3900
Wire Notes Line
	5350 3900 850  3900
Wire Notes Line
	850  3900 850  4400
Wire Notes Line
	850  4400 5350 4400
Text Notes 950  4150 0    50   ~ 0
convertisseur courant -> tension & filtre passebande 10Kz \n& amp non inverseur pour récuperer le courant généré par la LED infrarouge receptrice \n
Text Notes 9950 1950 0    50   ~ 0
Led emettrice \n
$Comp
L Diode:1N4148 D3
U 1 1 5F78303A
P 5650 5000
F 0 "D3" H 5650 4783 50  0000 C CNN
F 1 "1N4148" H 5650 4874 50  0000 C CNN
F 2 "Resistor_THT:R_Axial_DIN0309_L9.0mm_D3.2mm_P12.70mm_Horizontal" H 5650 4825 50  0001 C CNN
F 3 "https://assets.nexperia.com/documents/data-sheet/1N4148_1N4448.pdf" H 5650 5000 50  0001 C CNN
	1    5650 5000
	-1   0    0    1   
$EndComp
$Comp
L Device:R_US R8
U 1 1 5F784545
P 6000 5400
F 0 "R8" H 5932 5354 50  0000 R CNN
F 1 "100k" H 5932 5445 50  0000 R CNN
F 2 "Resistor_SMD:R_1206_3216Metric" V 6040 5390 50  0001 C CNN
F 3 "~" H 6000 5400 50  0001 C CNN
	1    6000 5400
	-1   0    0    1   
$EndComp
$Comp
L power:GND #PWR016
U 1 1 5F7848C6
P 6000 6050
F 0 "#PWR016" H 6000 5800 50  0001 C CNN
F 1 "GND" H 6005 5877 50  0000 C CNN
F 2 "" H 6000 6050 50  0001 C CNN
F 3 "" H 6000 6050 50  0001 C CNN
	1    6000 6050
	1    0    0    -1  
$EndComp
Wire Wire Line
	6000 5550 6000 6050
Wire Wire Line
	6000 5250 6000 5000
Wire Wire Line
	6000 5000 5800 5000
Wire Wire Line
	5500 5000 5250 5000
Connection ~ 5250 5000
$Comp
L Device:C_Small C11
U 1 1 5F78FDED
P 6400 5400
F 0 "C11" H 6492 5446 50  0000 L CNN
F 1 "10n" H 6492 5355 50  0000 L CNN
F 2 "Capacitor_SMD:C_1206_3216Metric" H 6400 5400 50  0001 C CNN
F 3 "~" H 6400 5400 50  0001 C CNN
	1    6400 5400
	1    0    0    -1  
$EndComp
$Comp
L power:GND #PWR017
U 1 1 5F78FE77
P 6400 6050
F 0 "#PWR017" H 6400 5800 50  0001 C CNN
F 1 "GND" H 6405 5877 50  0000 C CNN
F 2 "" H 6400 6050 50  0001 C CNN
F 3 "" H 6400 6050 50  0001 C CNN
	1    6400 6050
	1    0    0    -1  
$EndComp
Wire Wire Line
	6400 5500 6400 6050
Wire Wire Line
	6400 5300 6400 5000
Wire Wire Line
	6400 5000 6350 5000
Connection ~ 6000 5000
$Comp
L Connector:TestPoint TP5
U 1 1 5F7978C1
P 6350 4650
F 0 "TP5" H 6408 4768 50  0000 L CNN
F 1 "Vd" H 6408 4677 50  0000 L CNN
F 2 "Connector_Pin:Pin_D1.1mm_L10.2mm_W3.5mm_Flat" H 6550 4650 50  0001 C CNN
F 3 "~" H 6550 4650 50  0001 C CNN
	1    6350 4650
	1    0    0    -1  
$EndComp
Wire Wire Line
	6350 4650 6350 5000
Connection ~ 6350 5000
Wire Wire Line
	6350 5000 6000 5000
$Comp
L Comparator:LM311 U3
U 1 1 5F79C8C6
P 7750 5100
F 0 "U3" H 8094 5146 50  0000 L CNN
F 1 "LM311" H 8094 5055 50  0000 L CNN
F 2 "Package_SO:SO-8_5.3x6.2mm_P1.27mm" H 7750 5100 50  0001 C CNN
F 3 "https://www.st.com/resource/en/datasheet/lm311.pdf" H 7750 5100 50  0001 C CNN
	1    7750 5100
	1    0    0    -1  
$EndComp
NoConn ~ 7750 4800
NoConn ~ 7850 4800
$Comp
L power:GND #PWR022
U 1 1 5F7A554B
P 7700 6050
F 0 "#PWR022" H 7700 5800 50  0001 C CNN
F 1 "GND" H 7705 5877 50  0000 C CNN
F 2 "" H 7700 6050 50  0001 C CNN
F 3 "" H 7700 6050 50  0001 C CNN
	1    7700 6050
	1    0    0    -1  
$EndComp
Wire Wire Line
	7650 5400 7650 5750
Wire Wire Line
	7650 5750 7700 5750
Wire Wire Line
	7700 5750 7700 6050
Wire Wire Line
	7700 5750 7750 5750
Wire Wire Line
	7750 5750 7750 5400
Connection ~ 7700 5750
Wire Wire Line
	7450 5000 6400 5000
Connection ~ 6400 5000
$Comp
L power:+15V #PWR018
U 1 1 5F7B26F5
P 6950 5250
F 0 "#PWR018" H 6950 5100 50  0001 C CNN
F 1 "+15V" H 6965 5423 50  0000 C CNN
F 2 "" H 6950 5250 50  0001 C CNN
F 3 "" H 6950 5250 50  0001 C CNN
	1    6950 5250
	1    0    0    -1  
$EndComp
$Comp
L Device:R_US R9
U 1 1 5F7B29AA
P 6950 5450
F 0 "R9" H 6882 5404 50  0000 R CNN
F 1 "6k8" H 6882 5495 50  0000 R CNN
F 2 "Resistor_SMD:R_1206_3216Metric" V 6990 5440 50  0001 C CNN
F 3 "~" H 6950 5450 50  0001 C CNN
	1    6950 5450
	-1   0    0    1   
$EndComp
$Comp
L Device:R_US R10
U 1 1 5F7B2F91
P 6950 5850
F 0 "R10" H 6882 5804 50  0000 R CNN
F 1 "1k" H 6882 5895 50  0000 R CNN
F 2 "Resistor_SMD:R_1206_3216Metric" V 6990 5840 50  0001 C CNN
F 3 "~" H 6950 5850 50  0001 C CNN
	1    6950 5850
	-1   0    0    1   
$EndComp
$Comp
L power:GND #PWR019
U 1 1 5F7B3330
P 6950 6050
F 0 "#PWR019" H 6950 5800 50  0001 C CNN
F 1 "GND" H 6955 5877 50  0000 C CNN
F 2 "" H 6950 6050 50  0001 C CNN
F 3 "" H 6950 6050 50  0001 C CNN
	1    6950 6050
	1    0    0    -1  
$EndComp
Wire Wire Line
	6950 6000 6950 6050
Wire Wire Line
	6950 5600 6950 5650
Wire Wire Line
	6950 5650 7300 5650
Wire Wire Line
	7300 5650 7300 5200
Wire Wire Line
	7300 5200 7450 5200
Connection ~ 6950 5650
Wire Wire Line
	6950 5650 6950 5700
Wire Wire Line
	6950 5250 6950 5300
$Comp
L Connector:TestPoint TP6
U 1 1 5F7C5A9D
P 7300 5800
F 0 "TP6" H 7242 5826 50  0000 R CNN
F 1 "Vref" H 7242 5917 50  0000 R CNN
F 2 "Connector_Pin:Pin_D1.1mm_L10.2mm_W3.5mm_Flat" H 7500 5800 50  0001 C CNN
F 3 "~" H 7500 5800 50  0001 C CNN
	1    7300 5800
	-1   0    0    1   
$EndComp
Wire Wire Line
	7300 5800 7300 5650
Connection ~ 7300 5650
$Comp
L power:+15V #PWR021
U 1 1 5F7CAEB2
P 7650 4650
F 0 "#PWR021" H 7650 4500 50  0001 C CNN
F 1 "+15V" H 7665 4823 50  0000 C CNN
F 2 "" H 7650 4650 50  0001 C CNN
F 3 "" H 7650 4650 50  0001 C CNN
	1    7650 4650
	1    0    0    -1  
$EndComp
$Comp
L power:GND #PWR020
U 1 1 5F7CB679
P 7250 4750
F 0 "#PWR020" H 7250 4500 50  0001 C CNN
F 1 "GND" H 7255 4577 50  0000 C CNN
F 2 "" H 7250 4750 50  0001 C CNN
F 3 "" H 7250 4750 50  0001 C CNN
	1    7250 4750
	1    0    0    -1  
$EndComp
$Comp
L Device:C_Small C12
U 1 1 5F7CC598
P 7450 4700
F 0 "C12" V 7221 4700 50  0000 C CNN
F 1 "100n" V 7312 4700 50  0000 C CNN
F 2 "Capacitor_SMD:C_1206_3216Metric" H 7450 4700 50  0001 C CNN
F 3 "~" H 7450 4700 50  0001 C CNN
	1    7450 4700
	0    1    1    0   
$EndComp
Wire Wire Line
	7650 4650 7650 4700
Wire Wire Line
	7550 4700 7650 4700
Connection ~ 7650 4700
Wire Wire Line
	7650 4700 7650 4800
Wire Wire Line
	7350 4700 7250 4700
Wire Wire Line
	7250 4700 7250 4750
$Comp
L Device:R_US R11
U 1 1 5F7DC566
P 8500 4850
F 0 "R11" H 8568 4896 50  0000 L CNN
F 1 "1k" H 8568 4805 50  0000 L CNN
F 2 "Resistor_SMD:R_1206_3216Metric" V 8540 4840 50  0001 C CNN
F 3 "~" H 8500 4850 50  0001 C CNN
	1    8500 4850
	1    0    0    -1  
$EndComp
$Comp
L Device:R_US R12
U 1 1 5F7DC62B
P 8500 5300
F 0 "R12" H 8568 5346 50  0000 L CNN
F 1 "330" H 8568 5255 50  0000 L CNN
F 2 "Resistor_SMD:R_1206_3216Metric" V 8540 5290 50  0001 C CNN
F 3 "~" H 8500 5300 50  0001 C CNN
	1    8500 5300
	1    0    0    -1  
$EndComp
$Comp
L Device:LED D4
U 1 1 5F7DD44E
P 8500 5700
F 0 "D4" V 8539 5582 50  0000 R CNN
F 1 "LED" V 8448 5582 50  0000 R CNN
F 2 "Connector_PinHeader_2.54mm:PinHeader_1x02_P2.54mm_Vertical" H 8500 5700 50  0001 C CNN
F 3 "~" H 8500 5700 50  0001 C CNN
	1    8500 5700
	0    -1   -1   0   
$EndComp
$Comp
L power:GND #PWR024
U 1 1 5F7DD723
P 8500 6050
F 0 "#PWR024" H 8500 5800 50  0001 C CNN
F 1 "GND" H 8505 5877 50  0000 C CNN
F 2 "" H 8500 6050 50  0001 C CNN
F 3 "" H 8500 6050 50  0001 C CNN
	1    8500 6050
	1    0    0    -1  
$EndComp
Wire Wire Line
	8500 5850 8500 6050
Wire Wire Line
	8500 5550 8500 5450
Wire Wire Line
	8500 5150 8500 5100
Wire Wire Line
	8500 5100 8050 5100
Connection ~ 8500 5100
$Comp
L power:+15V #PWR023
U 1 1 5F7F2B14
P 8500 4600
F 0 "#PWR023" H 8500 4450 50  0001 C CNN
F 1 "+15V" H 8515 4773 50  0000 C CNN
F 2 "" H 8500 4600 50  0001 C CNN
F 3 "" H 8500 4600 50  0001 C CNN
	1    8500 4600
	1    0    0    -1  
$EndComp
Wire Wire Line
	8500 4600 8500 4700
Text Notes 8700 5950 0    50   ~ 0
temoin lumineux\n
$Comp
L Connector:TestPoint TP7
U 1 1 5F7F9563
P 8900 4650
F 0 "TP7" H 8958 4768 50  0000 L CNN
F 1 "Vir" H 8958 4677 50  0000 L CNN
F 2 "Connector_Pin:Pin_D1.1mm_L10.2mm_W3.5mm_Flat" H 9100 4650 50  0001 C CNN
F 3 "~" H 9100 4650 50  0001 C CNN
	1    8900 4650
	1    0    0    -1  
$EndComp
$Comp
L Connector:Screw_Terminal_01x02 J2
U 1 1 5F7FA4C8
P 9350 5050
F 0 "J2" H 9430 5042 50  0000 L CNN
F 1 "vers_automate" H 9430 4951 50  0000 L CNN
F 2 "TerminalBlock:TerminalBlock_bornier-2_P5.08mm" H 9350 5050 50  0001 C CNN
F 3 "~" H 9350 5050 50  0001 C CNN
	1    9350 5050
	1    0    0    -1  
$EndComp
$Comp
L power:GND #PWR025
U 1 1 5F7FA931
P 9000 5400
F 0 "#PWR025" H 9000 5150 50  0001 C CNN
F 1 "GND" H 9005 5227 50  0000 C CNN
F 2 "" H 9000 5400 50  0001 C CNN
F 3 "" H 9000 5400 50  0001 C CNN
	1    9000 5400
	1    0    0    -1  
$EndComp
Wire Wire Line
	8500 5000 8500 5050
Wire Wire Line
	8500 5050 8900 5050
Connection ~ 8500 5050
Wire Wire Line
	8500 5050 8500 5100
Wire Wire Line
	8900 4650 8900 5050
Connection ~ 8900 5050
Wire Wire Line
	8900 5050 9150 5050
Wire Wire Line
	9000 5150 9000 5400
Wire Wire Line
	9000 5150 9150 5150
Wire Notes Line
	5550 3900 8050 3900
Wire Notes Line
	8050 3900 8050 4400
Wire Notes Line
	8050 4400 5550 4400
Wire Notes Line
	5550 4400 5550 3900
Text Notes 5650 4150 0    50   ~ 0
detecteur de niveau (enveloppe) & compateur oui/non
$EndSCHEMATC
