%TF.GenerationSoftware,KiCad,Pcbnew,5.1.6+dfsg1-1~bpo10+1*%
%TF.CreationDate,2020-09-26T21:27:15+02:00*%
%TF.ProjectId,diy_,6469795f-2e6b-4696-9361-645f70636258,rev?*%
%TF.SameCoordinates,Original*%
%TF.FileFunction,Legend,Top*%
%TF.FilePolarity,Positive*%
%FSLAX46Y46*%
G04 Gerber Fmt 4.6, Leading zero omitted, Abs format (unit mm)*
G04 Created by KiCad (PCBNEW 5.1.6+dfsg1-1~bpo10+1) date 2020-09-26 21:27:15*
%MOMM*%
%LPD*%
G01*
G04 APERTURE LIST*
%ADD10C,0.120000*%
%ADD11C,0.150000*%
G04 APERTURE END LIST*
D10*
%TO.C,C1*%
X114834000Y-93700000D02*
X116034000Y-93700000D01*
X119354000Y-93700000D02*
X118154000Y-93700000D01*
X119354000Y-90244437D02*
X119354000Y-93700000D01*
X114834000Y-90244437D02*
X114834000Y-93700000D01*
X115898437Y-89180000D02*
X116034000Y-89180000D01*
X118289563Y-89180000D02*
X118154000Y-89180000D01*
X118289563Y-89180000D02*
X119354000Y-90244437D01*
X115898437Y-89180000D02*
X114834000Y-90244437D01*
X118654000Y-88440000D02*
X118654000Y-88940000D01*
X118904000Y-88690000D02*
X118404000Y-88690000D01*
%TO.C,C2*%
X92170000Y-94444000D02*
X92670000Y-94444000D01*
X92420000Y-94694000D02*
X92420000Y-94194000D01*
X95175563Y-93954000D02*
X96240000Y-92889563D01*
X92784437Y-93954000D02*
X91720000Y-92889563D01*
X92784437Y-93954000D02*
X92920000Y-93954000D01*
X95175563Y-93954000D02*
X95040000Y-93954000D01*
X96240000Y-92889563D02*
X96240000Y-89434000D01*
X91720000Y-92889563D02*
X91720000Y-89434000D01*
X91720000Y-89434000D02*
X92920000Y-89434000D01*
X96240000Y-89434000D02*
X95040000Y-89434000D01*
%TO.C,C4*%
X111092064Y-105262000D02*
X109887936Y-105262000D01*
X111092064Y-107082000D02*
X109887936Y-107082000D01*
%TO.C,C7*%
X116946000Y-114205936D02*
X116946000Y-115410064D01*
X118766000Y-114205936D02*
X118766000Y-115410064D01*
%TO.C,C9*%
X79936078Y-121464000D02*
X79418922Y-121464000D01*
X79936078Y-122884000D02*
X79418922Y-122884000D01*
%TO.C,D1*%
X109922000Y-117288000D02*
X111252000Y-117288000D01*
X109922000Y-118618000D02*
X109922000Y-117288000D01*
X109922000Y-119888000D02*
X112582000Y-119888000D01*
X112582000Y-119888000D02*
X112582000Y-122488000D01*
X109922000Y-119888000D02*
X109922000Y-122488000D01*
X109922000Y-122488000D02*
X112582000Y-122488000D01*
%TO.C,D2*%
X81474000Y-114240000D02*
X82804000Y-114240000D01*
X81474000Y-115570000D02*
X81474000Y-114240000D01*
X81474000Y-116840000D02*
X84134000Y-116840000D01*
X84134000Y-116840000D02*
X84134000Y-119440000D01*
X81474000Y-116840000D02*
X81474000Y-119440000D01*
X81474000Y-119440000D02*
X84134000Y-119440000D01*
%TO.C,D3*%
X100838000Y-104164000D02*
X100838000Y-104854000D01*
X100838000Y-114784000D02*
X100838000Y-114094000D01*
X99118000Y-104854000D02*
X99118000Y-114094000D01*
X102558000Y-104854000D02*
X99118000Y-104854000D01*
X102558000Y-114094000D02*
X102558000Y-104854000D01*
X99118000Y-114094000D02*
X102558000Y-114094000D01*
%TO.C,D4*%
X129600000Y-109026000D02*
X129600000Y-106366000D01*
X127000000Y-109026000D02*
X129600000Y-109026000D01*
X127000000Y-106366000D02*
X129600000Y-106366000D01*
X127000000Y-109026000D02*
X127000000Y-106366000D01*
X125730000Y-109026000D02*
X124400000Y-109026000D01*
X124400000Y-109026000D02*
X124400000Y-107696000D01*
%TO.C,+15v / 0 / -15v*%
X112776000Y-86360000D02*
X97536000Y-86360000D01*
X112776000Y-93980000D02*
X97536000Y-93980000D01*
X112776000Y-87630000D02*
X97536000Y-87630000D01*
X97536000Y-86360000D02*
X97536000Y-93980000D01*
X112776000Y-86360000D02*
X112776000Y-93980000D01*
%TO.C,J2*%
X131572000Y-86360000D02*
X121412000Y-86360000D01*
X131572000Y-93980000D02*
X131572000Y-86360000D01*
X121412000Y-93980000D02*
X131572000Y-93980000D01*
X121412000Y-86360000D02*
X121412000Y-93980000D01*
X121412000Y-87630000D02*
X131572000Y-87630000D01*
%TO.C,L1*%
X78994000Y-110260000D02*
X78994000Y-110880000D01*
X78994000Y-118340000D02*
X78994000Y-117720000D01*
X77524000Y-110880000D02*
X77524000Y-117720000D01*
X80464000Y-110880000D02*
X77524000Y-110880000D01*
X80464000Y-117720000D02*
X80464000Y-110880000D01*
X77524000Y-117720000D02*
X80464000Y-117720000D01*
%TO.C,R2*%
X116680064Y-122576000D02*
X115475936Y-122576000D01*
X116680064Y-120756000D02*
X115475936Y-120756000D01*
%TO.C,R6*%
X97938000Y-116804064D02*
X97938000Y-115599936D01*
X96118000Y-116804064D02*
X96118000Y-115599936D01*
%TO.C,R8*%
X97695936Y-119486000D02*
X98900064Y-119486000D01*
X97695936Y-121306000D02*
X98900064Y-121306000D01*
%TO.C,R9*%
X117708000Y-101883936D02*
X117708000Y-103088064D01*
X119528000Y-101883936D02*
X119528000Y-103088064D01*
%TO.C,R10*%
X109887936Y-96626000D02*
X111092064Y-96626000D01*
X109887936Y-98446000D02*
X111092064Y-98446000D01*
%TO.C,R11*%
X129942000Y-97630064D02*
X129942000Y-96425936D01*
X128122000Y-97630064D02*
X128122000Y-96425936D01*
%TO.C,R12*%
X126267936Y-101452000D02*
X127472064Y-101452000D01*
X126267936Y-103272000D02*
X127472064Y-103272000D01*
%TO.C,RV1*%
X120356000Y-118026000D02*
X125096000Y-118026000D01*
X120356000Y-122766000D02*
X125096000Y-122766000D01*
X125096000Y-119156000D02*
X125096000Y-118026000D01*
X125096000Y-122766000D02*
X125096000Y-121636000D01*
X120356000Y-120655000D02*
X120356000Y-120136000D01*
X120356000Y-122766000D02*
X120356000Y-122435000D01*
X120356000Y-118356000D02*
X120356000Y-118026000D01*
%TO.C,TP1*%
X126166000Y-114270000D02*
X126166000Y-116870000D01*
X129866000Y-116870000D02*
X126166000Y-116870000D01*
X129866000Y-114270000D02*
X129866000Y-116870000D01*
X126166000Y-114270000D02*
X129866000Y-114270000D01*
%TO.C,TP2*%
X77652000Y-104872000D02*
X81352000Y-104872000D01*
X81352000Y-104872000D02*
X81352000Y-107472000D01*
X81352000Y-107472000D02*
X77652000Y-107472000D01*
X77652000Y-104872000D02*
X77652000Y-107472000D01*
%TO.C,TP3*%
X88066000Y-120112000D02*
X88066000Y-122712000D01*
X91766000Y-122712000D02*
X88066000Y-122712000D01*
X91766000Y-120112000D02*
X91766000Y-122712000D01*
X88066000Y-120112000D02*
X91766000Y-120112000D01*
%TO.C,TP4*%
X89844000Y-103856000D02*
X93544000Y-103856000D01*
X93544000Y-103856000D02*
X93544000Y-106456000D01*
X93544000Y-106456000D02*
X89844000Y-106456000D01*
X89844000Y-103856000D02*
X89844000Y-106456000D01*
%TO.C,TP5*%
X108640000Y-100808000D02*
X112340000Y-100808000D01*
X112340000Y-100808000D02*
X112340000Y-103408000D01*
X112340000Y-103408000D02*
X108640000Y-103408000D01*
X108640000Y-100808000D02*
X108640000Y-103408000D01*
%TO.C,TP6*%
X114482000Y-106396000D02*
X114482000Y-108996000D01*
X118182000Y-108996000D02*
X114482000Y-108996000D01*
X118182000Y-106396000D02*
X118182000Y-108996000D01*
X114482000Y-106396000D02*
X118182000Y-106396000D01*
%TO.C,TP7*%
X125802000Y-97566000D02*
X125802000Y-94966000D01*
X122102000Y-94966000D02*
X125802000Y-94966000D01*
X122102000Y-97566000D02*
X122102000Y-94966000D01*
X125802000Y-97566000D02*
X122102000Y-97566000D01*
%TO.C,U1*%
X92420000Y-107890000D02*
X91170000Y-107890000D01*
X92420000Y-118170000D02*
X92420000Y-107890000D01*
X87920000Y-118170000D02*
X92420000Y-118170000D01*
X87920000Y-107890000D02*
X87920000Y-118170000D01*
X89170000Y-107890000D02*
X87920000Y-107890000D01*
X91170000Y-107890000D02*
G75*
G02*
X89170000Y-107890000I-1000000J0D01*
G01*
%TO.C,C1*%
D11*
X119467333Y-95607142D02*
X119419714Y-95654761D01*
X119276857Y-95702380D01*
X119181619Y-95702380D01*
X119038761Y-95654761D01*
X118943523Y-95559523D01*
X118895904Y-95464285D01*
X118848285Y-95273809D01*
X118848285Y-95130952D01*
X118895904Y-94940476D01*
X118943523Y-94845238D01*
X119038761Y-94750000D01*
X119181619Y-94702380D01*
X119276857Y-94702380D01*
X119419714Y-94750000D01*
X119467333Y-94797619D01*
X120419714Y-95702380D02*
X119848285Y-95702380D01*
X120134000Y-95702380D02*
X120134000Y-94702380D01*
X120038761Y-94845238D01*
X119943523Y-94940476D01*
X119848285Y-94988095D01*
%TO.C,C2*%
X89495333Y-92305142D02*
X89447714Y-92352761D01*
X89304857Y-92400380D01*
X89209619Y-92400380D01*
X89066761Y-92352761D01*
X88971523Y-92257523D01*
X88923904Y-92162285D01*
X88876285Y-91971809D01*
X88876285Y-91828952D01*
X88923904Y-91638476D01*
X88971523Y-91543238D01*
X89066761Y-91448000D01*
X89209619Y-91400380D01*
X89304857Y-91400380D01*
X89447714Y-91448000D01*
X89495333Y-91495619D01*
X89876285Y-91495619D02*
X89923904Y-91448000D01*
X90019142Y-91400380D01*
X90257238Y-91400380D01*
X90352476Y-91448000D01*
X90400095Y-91495619D01*
X90447714Y-91590857D01*
X90447714Y-91686095D01*
X90400095Y-91828952D01*
X89828666Y-92400380D01*
X90447714Y-92400380D01*
%TO.C,C4*%
X110323333Y-108349142D02*
X110275714Y-108396761D01*
X110132857Y-108444380D01*
X110037619Y-108444380D01*
X109894761Y-108396761D01*
X109799523Y-108301523D01*
X109751904Y-108206285D01*
X109704285Y-108015809D01*
X109704285Y-107872952D01*
X109751904Y-107682476D01*
X109799523Y-107587238D01*
X109894761Y-107492000D01*
X110037619Y-107444380D01*
X110132857Y-107444380D01*
X110275714Y-107492000D01*
X110323333Y-107539619D01*
X111180476Y-107777714D02*
X111180476Y-108444380D01*
X110942380Y-107396761D02*
X110704285Y-108111047D01*
X111323333Y-108111047D01*
%TO.C,C7*%
X117689333Y-112371142D02*
X117641714Y-112418761D01*
X117498857Y-112466380D01*
X117403619Y-112466380D01*
X117260761Y-112418761D01*
X117165523Y-112323523D01*
X117117904Y-112228285D01*
X117070285Y-112037809D01*
X117070285Y-111894952D01*
X117117904Y-111704476D01*
X117165523Y-111609238D01*
X117260761Y-111514000D01*
X117403619Y-111466380D01*
X117498857Y-111466380D01*
X117641714Y-111514000D01*
X117689333Y-111561619D01*
X118022666Y-111466380D02*
X118689333Y-111466380D01*
X118260761Y-112466380D01*
%TO.C,C9*%
X82637333Y-121515142D02*
X82589714Y-121562761D01*
X82446857Y-121610380D01*
X82351619Y-121610380D01*
X82208761Y-121562761D01*
X82113523Y-121467523D01*
X82065904Y-121372285D01*
X82018285Y-121181809D01*
X82018285Y-121038952D01*
X82065904Y-120848476D01*
X82113523Y-120753238D01*
X82208761Y-120658000D01*
X82351619Y-120610380D01*
X82446857Y-120610380D01*
X82589714Y-120658000D01*
X82637333Y-120705619D01*
X83113523Y-121610380D02*
X83304000Y-121610380D01*
X83399238Y-121562761D01*
X83446857Y-121515142D01*
X83542095Y-121372285D01*
X83589714Y-121181809D01*
X83589714Y-120800857D01*
X83542095Y-120705619D01*
X83494476Y-120658000D01*
X83399238Y-120610380D01*
X83208761Y-120610380D01*
X83113523Y-120658000D01*
X83065904Y-120705619D01*
X83018285Y-120800857D01*
X83018285Y-121038952D01*
X83065904Y-121134190D01*
X83113523Y-121181809D01*
X83208761Y-121229428D01*
X83399238Y-121229428D01*
X83494476Y-121181809D01*
X83542095Y-121134190D01*
X83589714Y-121038952D01*
%TO.C,D1*%
X110513904Y-115768380D02*
X110513904Y-114768380D01*
X110752000Y-114768380D01*
X110894857Y-114816000D01*
X110990095Y-114911238D01*
X111037714Y-115006476D01*
X111085333Y-115196952D01*
X111085333Y-115339809D01*
X111037714Y-115530285D01*
X110990095Y-115625523D01*
X110894857Y-115720761D01*
X110752000Y-115768380D01*
X110513904Y-115768380D01*
X112037714Y-115768380D02*
X111466285Y-115768380D01*
X111752000Y-115768380D02*
X111752000Y-114768380D01*
X111656761Y-114911238D01*
X111561523Y-115006476D01*
X111466285Y-115054095D01*
%TO.C,D2*%
X82065904Y-113692380D02*
X82065904Y-112692380D01*
X82304000Y-112692380D01*
X82446857Y-112740000D01*
X82542095Y-112835238D01*
X82589714Y-112930476D01*
X82637333Y-113120952D01*
X82637333Y-113263809D01*
X82589714Y-113454285D01*
X82542095Y-113549523D01*
X82446857Y-113644761D01*
X82304000Y-113692380D01*
X82065904Y-113692380D01*
X83018285Y-112787619D02*
X83065904Y-112740000D01*
X83161142Y-112692380D01*
X83399238Y-112692380D01*
X83494476Y-112740000D01*
X83542095Y-112787619D01*
X83589714Y-112882857D01*
X83589714Y-112978095D01*
X83542095Y-113120952D01*
X82970666Y-113692380D01*
X83589714Y-113692380D01*
%TO.C,D3*%
X97305904Y-106624380D02*
X97305904Y-105624380D01*
X97544000Y-105624380D01*
X97686857Y-105672000D01*
X97782095Y-105767238D01*
X97829714Y-105862476D01*
X97877333Y-106052952D01*
X97877333Y-106195809D01*
X97829714Y-106386285D01*
X97782095Y-106481523D01*
X97686857Y-106576761D01*
X97544000Y-106624380D01*
X97305904Y-106624380D01*
X98210666Y-105624380D02*
X98829714Y-105624380D01*
X98496380Y-106005333D01*
X98639238Y-106005333D01*
X98734476Y-106052952D01*
X98782095Y-106100571D01*
X98829714Y-106195809D01*
X98829714Y-106433904D01*
X98782095Y-106529142D01*
X98734476Y-106576761D01*
X98639238Y-106624380D01*
X98353523Y-106624380D01*
X98258285Y-106576761D01*
X98210666Y-106529142D01*
%TO.C,D4*%
X121689904Y-108148380D02*
X121689904Y-107148380D01*
X121928000Y-107148380D01*
X122070857Y-107196000D01*
X122166095Y-107291238D01*
X122213714Y-107386476D01*
X122261333Y-107576952D01*
X122261333Y-107719809D01*
X122213714Y-107910285D01*
X122166095Y-108005523D01*
X122070857Y-108100761D01*
X121928000Y-108148380D01*
X121689904Y-108148380D01*
X123118476Y-107481714D02*
X123118476Y-108148380D01*
X122880380Y-107100761D02*
X122642285Y-107815047D01*
X123261333Y-107815047D01*
%TO.C,+15v / 0 / -15v*%
X98471714Y-94891428D02*
X99233619Y-94891428D01*
X98852666Y-95272380D02*
X98852666Y-94510476D01*
X100233619Y-95272380D02*
X99662190Y-95272380D01*
X99947904Y-95272380D02*
X99947904Y-94272380D01*
X99852666Y-94415238D01*
X99757428Y-94510476D01*
X99662190Y-94558095D01*
X101138380Y-94272380D02*
X100662190Y-94272380D01*
X100614571Y-94748571D01*
X100662190Y-94700952D01*
X100757428Y-94653333D01*
X100995523Y-94653333D01*
X101090761Y-94700952D01*
X101138380Y-94748571D01*
X101186000Y-94843809D01*
X101186000Y-95081904D01*
X101138380Y-95177142D01*
X101090761Y-95224761D01*
X100995523Y-95272380D01*
X100757428Y-95272380D01*
X100662190Y-95224761D01*
X100614571Y-95177142D01*
X101519333Y-94605714D02*
X101757428Y-95272380D01*
X101995523Y-94605714D01*
X103852666Y-94224761D02*
X102995523Y-95510476D01*
X105138380Y-94272380D02*
X105233619Y-94272380D01*
X105328857Y-94320000D01*
X105376476Y-94367619D01*
X105424095Y-94462857D01*
X105471714Y-94653333D01*
X105471714Y-94891428D01*
X105424095Y-95081904D01*
X105376476Y-95177142D01*
X105328857Y-95224761D01*
X105233619Y-95272380D01*
X105138380Y-95272380D01*
X105043142Y-95224761D01*
X104995523Y-95177142D01*
X104947904Y-95081904D01*
X104900285Y-94891428D01*
X104900285Y-94653333D01*
X104947904Y-94462857D01*
X104995523Y-94367619D01*
X105043142Y-94320000D01*
X105138380Y-94272380D01*
X107376476Y-94224761D02*
X106519333Y-95510476D01*
X108471714Y-94891428D02*
X109233619Y-94891428D01*
X110233619Y-95272380D02*
X109662190Y-95272380D01*
X109947904Y-95272380D02*
X109947904Y-94272380D01*
X109852666Y-94415238D01*
X109757428Y-94510476D01*
X109662190Y-94558095D01*
X111138380Y-94272380D02*
X110662190Y-94272380D01*
X110614571Y-94748571D01*
X110662190Y-94700952D01*
X110757428Y-94653333D01*
X110995523Y-94653333D01*
X111090761Y-94700952D01*
X111138380Y-94748571D01*
X111186000Y-94843809D01*
X111186000Y-95081904D01*
X111138380Y-95177142D01*
X111090761Y-95224761D01*
X110995523Y-95272380D01*
X110757428Y-95272380D01*
X110662190Y-95224761D01*
X110614571Y-95177142D01*
X111519333Y-94605714D02*
X111757428Y-95272380D01*
X111995523Y-94605714D01*
%TO.C,J2*%
X131238666Y-94702380D02*
X131238666Y-95416666D01*
X131191047Y-95559523D01*
X131095809Y-95654761D01*
X130952952Y-95702380D01*
X130857714Y-95702380D01*
X131667238Y-94797619D02*
X131714857Y-94750000D01*
X131810095Y-94702380D01*
X132048190Y-94702380D01*
X132143428Y-94750000D01*
X132191047Y-94797619D01*
X132238666Y-94892857D01*
X132238666Y-94988095D01*
X132191047Y-95130952D01*
X131619619Y-95702380D01*
X132238666Y-95702380D01*
%TO.C,L1*%
X81367333Y-110688380D02*
X80891142Y-110688380D01*
X80891142Y-109688380D01*
X82224476Y-110688380D02*
X81653047Y-110688380D01*
X81938761Y-110688380D02*
X81938761Y-109688380D01*
X81843523Y-109831238D01*
X81748285Y-109926476D01*
X81653047Y-109974095D01*
%TO.C,R2*%
X115911333Y-118308380D02*
X115578000Y-117832190D01*
X115339904Y-118308380D02*
X115339904Y-117308380D01*
X115720857Y-117308380D01*
X115816095Y-117356000D01*
X115863714Y-117403619D01*
X115911333Y-117498857D01*
X115911333Y-117641714D01*
X115863714Y-117736952D01*
X115816095Y-117784571D01*
X115720857Y-117832190D01*
X115339904Y-117832190D01*
X116292285Y-117403619D02*
X116339904Y-117356000D01*
X116435142Y-117308380D01*
X116673238Y-117308380D01*
X116768476Y-117356000D01*
X116816095Y-117403619D01*
X116863714Y-117498857D01*
X116863714Y-117594095D01*
X116816095Y-117736952D01*
X116244666Y-118308380D01*
X116863714Y-118308380D01*
%TO.C,R6*%
X96861333Y-113736380D02*
X96528000Y-113260190D01*
X96289904Y-113736380D02*
X96289904Y-112736380D01*
X96670857Y-112736380D01*
X96766095Y-112784000D01*
X96813714Y-112831619D01*
X96861333Y-112926857D01*
X96861333Y-113069714D01*
X96813714Y-113164952D01*
X96766095Y-113212571D01*
X96670857Y-113260190D01*
X96289904Y-113260190D01*
X97718476Y-112736380D02*
X97528000Y-112736380D01*
X97432761Y-112784000D01*
X97385142Y-112831619D01*
X97289904Y-112974476D01*
X97242285Y-113164952D01*
X97242285Y-113545904D01*
X97289904Y-113641142D01*
X97337523Y-113688761D01*
X97432761Y-113736380D01*
X97623238Y-113736380D01*
X97718476Y-113688761D01*
X97766095Y-113641142D01*
X97813714Y-113545904D01*
X97813714Y-113307809D01*
X97766095Y-113212571D01*
X97718476Y-113164952D01*
X97623238Y-113117333D01*
X97432761Y-113117333D01*
X97337523Y-113164952D01*
X97289904Y-113212571D01*
X97242285Y-113307809D01*
%TO.C,R8*%
X98893333Y-118816380D02*
X98560000Y-118340190D01*
X98321904Y-118816380D02*
X98321904Y-117816380D01*
X98702857Y-117816380D01*
X98798095Y-117864000D01*
X98845714Y-117911619D01*
X98893333Y-118006857D01*
X98893333Y-118149714D01*
X98845714Y-118244952D01*
X98798095Y-118292571D01*
X98702857Y-118340190D01*
X98321904Y-118340190D01*
X99464761Y-118244952D02*
X99369523Y-118197333D01*
X99321904Y-118149714D01*
X99274285Y-118054476D01*
X99274285Y-118006857D01*
X99321904Y-117911619D01*
X99369523Y-117864000D01*
X99464761Y-117816380D01*
X99655238Y-117816380D01*
X99750476Y-117864000D01*
X99798095Y-117911619D01*
X99845714Y-118006857D01*
X99845714Y-118054476D01*
X99798095Y-118149714D01*
X99750476Y-118197333D01*
X99655238Y-118244952D01*
X99464761Y-118244952D01*
X99369523Y-118292571D01*
X99321904Y-118340190D01*
X99274285Y-118435428D01*
X99274285Y-118625904D01*
X99321904Y-118721142D01*
X99369523Y-118768761D01*
X99464761Y-118816380D01*
X99655238Y-118816380D01*
X99750476Y-118768761D01*
X99798095Y-118721142D01*
X99845714Y-118625904D01*
X99845714Y-118435428D01*
X99798095Y-118340190D01*
X99750476Y-118292571D01*
X99655238Y-118244952D01*
%TO.C,R9*%
X120991333Y-102814380D02*
X120658000Y-102338190D01*
X120419904Y-102814380D02*
X120419904Y-101814380D01*
X120800857Y-101814380D01*
X120896095Y-101862000D01*
X120943714Y-101909619D01*
X120991333Y-102004857D01*
X120991333Y-102147714D01*
X120943714Y-102242952D01*
X120896095Y-102290571D01*
X120800857Y-102338190D01*
X120419904Y-102338190D01*
X121467523Y-102814380D02*
X121658000Y-102814380D01*
X121753238Y-102766761D01*
X121800857Y-102719142D01*
X121896095Y-102576285D01*
X121943714Y-102385809D01*
X121943714Y-102004857D01*
X121896095Y-101909619D01*
X121848476Y-101862000D01*
X121753238Y-101814380D01*
X121562761Y-101814380D01*
X121467523Y-101862000D01*
X121419904Y-101909619D01*
X121372285Y-102004857D01*
X121372285Y-102242952D01*
X121419904Y-102338190D01*
X121467523Y-102385809D01*
X121562761Y-102433428D01*
X121753238Y-102433428D01*
X121848476Y-102385809D01*
X121896095Y-102338190D01*
X121943714Y-102242952D01*
%TO.C,R10*%
X113911142Y-97988380D02*
X113577809Y-97512190D01*
X113339714Y-97988380D02*
X113339714Y-96988380D01*
X113720666Y-96988380D01*
X113815904Y-97036000D01*
X113863523Y-97083619D01*
X113911142Y-97178857D01*
X113911142Y-97321714D01*
X113863523Y-97416952D01*
X113815904Y-97464571D01*
X113720666Y-97512190D01*
X113339714Y-97512190D01*
X114863523Y-97988380D02*
X114292095Y-97988380D01*
X114577809Y-97988380D02*
X114577809Y-96988380D01*
X114482571Y-97131238D01*
X114387333Y-97226476D01*
X114292095Y-97274095D01*
X115482571Y-96988380D02*
X115577809Y-96988380D01*
X115673047Y-97036000D01*
X115720666Y-97083619D01*
X115768285Y-97178857D01*
X115815904Y-97369333D01*
X115815904Y-97607428D01*
X115768285Y-97797904D01*
X115720666Y-97893142D01*
X115673047Y-97940761D01*
X115577809Y-97988380D01*
X115482571Y-97988380D01*
X115387333Y-97940761D01*
X115339714Y-97893142D01*
X115292095Y-97797904D01*
X115244476Y-97607428D01*
X115244476Y-97369333D01*
X115292095Y-97178857D01*
X115339714Y-97083619D01*
X115387333Y-97036000D01*
X115482571Y-96988380D01*
%TO.C,R11*%
X131183142Y-98750380D02*
X130849809Y-98274190D01*
X130611714Y-98750380D02*
X130611714Y-97750380D01*
X130992666Y-97750380D01*
X131087904Y-97798000D01*
X131135523Y-97845619D01*
X131183142Y-97940857D01*
X131183142Y-98083714D01*
X131135523Y-98178952D01*
X131087904Y-98226571D01*
X130992666Y-98274190D01*
X130611714Y-98274190D01*
X132135523Y-98750380D02*
X131564095Y-98750380D01*
X131849809Y-98750380D02*
X131849809Y-97750380D01*
X131754571Y-97893238D01*
X131659333Y-97988476D01*
X131564095Y-98036095D01*
X133087904Y-98750380D02*
X132516476Y-98750380D01*
X132802190Y-98750380D02*
X132802190Y-97750380D01*
X132706952Y-97893238D01*
X132611714Y-97988476D01*
X132516476Y-98036095D01*
%TO.C,R12*%
X129405142Y-103068380D02*
X129071809Y-102592190D01*
X128833714Y-103068380D02*
X128833714Y-102068380D01*
X129214666Y-102068380D01*
X129309904Y-102116000D01*
X129357523Y-102163619D01*
X129405142Y-102258857D01*
X129405142Y-102401714D01*
X129357523Y-102496952D01*
X129309904Y-102544571D01*
X129214666Y-102592190D01*
X128833714Y-102592190D01*
X130357523Y-103068380D02*
X129786095Y-103068380D01*
X130071809Y-103068380D02*
X130071809Y-102068380D01*
X129976571Y-102211238D01*
X129881333Y-102306476D01*
X129786095Y-102354095D01*
X130738476Y-102163619D02*
X130786095Y-102116000D01*
X130881333Y-102068380D01*
X131119428Y-102068380D01*
X131214666Y-102116000D01*
X131262285Y-102163619D01*
X131309904Y-102258857D01*
X131309904Y-102354095D01*
X131262285Y-102496952D01*
X130690857Y-103068380D01*
X131309904Y-103068380D01*
%TO.C,RV1*%
X122340761Y-117038380D02*
X122007428Y-116562190D01*
X121769333Y-117038380D02*
X121769333Y-116038380D01*
X122150285Y-116038380D01*
X122245523Y-116086000D01*
X122293142Y-116133619D01*
X122340761Y-116228857D01*
X122340761Y-116371714D01*
X122293142Y-116466952D01*
X122245523Y-116514571D01*
X122150285Y-116562190D01*
X121769333Y-116562190D01*
X122626476Y-116038380D02*
X122959809Y-117038380D01*
X123293142Y-116038380D01*
X124150285Y-117038380D02*
X123578857Y-117038380D01*
X123864571Y-117038380D02*
X123864571Y-116038380D01*
X123769333Y-116181238D01*
X123674095Y-116276476D01*
X123578857Y-116324095D01*
%TO.C,TP1*%
X127008095Y-112482380D02*
X127579523Y-112482380D01*
X127293809Y-113482380D02*
X127293809Y-112482380D01*
X127912857Y-113482380D02*
X127912857Y-112482380D01*
X128293809Y-112482380D01*
X128389047Y-112530000D01*
X128436666Y-112577619D01*
X128484285Y-112672857D01*
X128484285Y-112815714D01*
X128436666Y-112910952D01*
X128389047Y-112958571D01*
X128293809Y-113006190D01*
X127912857Y-113006190D01*
X129436666Y-113482380D02*
X128865238Y-113482380D01*
X129150952Y-113482380D02*
X129150952Y-112482380D01*
X129055714Y-112625238D01*
X128960476Y-112720476D01*
X128865238Y-112768095D01*
%TO.C,TP2*%
X79256095Y-102322380D02*
X79827523Y-102322380D01*
X79541809Y-103322380D02*
X79541809Y-102322380D01*
X80160857Y-103322380D02*
X80160857Y-102322380D01*
X80541809Y-102322380D01*
X80637047Y-102370000D01*
X80684666Y-102417619D01*
X80732285Y-102512857D01*
X80732285Y-102655714D01*
X80684666Y-102750952D01*
X80637047Y-102798571D01*
X80541809Y-102846190D01*
X80160857Y-102846190D01*
X81113238Y-102417619D02*
X81160857Y-102370000D01*
X81256095Y-102322380D01*
X81494190Y-102322380D01*
X81589428Y-102370000D01*
X81637047Y-102417619D01*
X81684666Y-102512857D01*
X81684666Y-102608095D01*
X81637047Y-102750952D01*
X81065619Y-103322380D01*
X81684666Y-103322380D01*
%TO.C,TP3*%
X92464095Y-120610380D02*
X93035523Y-120610380D01*
X92749809Y-121610380D02*
X92749809Y-120610380D01*
X93368857Y-121610380D02*
X93368857Y-120610380D01*
X93749809Y-120610380D01*
X93845047Y-120658000D01*
X93892666Y-120705619D01*
X93940285Y-120800857D01*
X93940285Y-120943714D01*
X93892666Y-121038952D01*
X93845047Y-121086571D01*
X93749809Y-121134190D01*
X93368857Y-121134190D01*
X94273619Y-120610380D02*
X94892666Y-120610380D01*
X94559333Y-120991333D01*
X94702190Y-120991333D01*
X94797428Y-121038952D01*
X94845047Y-121086571D01*
X94892666Y-121181809D01*
X94892666Y-121419904D01*
X94845047Y-121515142D01*
X94797428Y-121562761D01*
X94702190Y-121610380D01*
X94416476Y-121610380D01*
X94321238Y-121562761D01*
X94273619Y-121515142D01*
%TO.C,TP4*%
X92210095Y-101814380D02*
X92781523Y-101814380D01*
X92495809Y-102814380D02*
X92495809Y-101814380D01*
X93114857Y-102814380D02*
X93114857Y-101814380D01*
X93495809Y-101814380D01*
X93591047Y-101862000D01*
X93638666Y-101909619D01*
X93686285Y-102004857D01*
X93686285Y-102147714D01*
X93638666Y-102242952D01*
X93591047Y-102290571D01*
X93495809Y-102338190D01*
X93114857Y-102338190D01*
X94543428Y-102147714D02*
X94543428Y-102814380D01*
X94305333Y-101766761D02*
X94067238Y-102481047D01*
X94686285Y-102481047D01*
%TO.C,TP5*%
X109228095Y-99274380D02*
X109799523Y-99274380D01*
X109513809Y-100274380D02*
X109513809Y-99274380D01*
X110132857Y-100274380D02*
X110132857Y-99274380D01*
X110513809Y-99274380D01*
X110609047Y-99322000D01*
X110656666Y-99369619D01*
X110704285Y-99464857D01*
X110704285Y-99607714D01*
X110656666Y-99702952D01*
X110609047Y-99750571D01*
X110513809Y-99798190D01*
X110132857Y-99798190D01*
X111609047Y-99274380D02*
X111132857Y-99274380D01*
X111085238Y-99750571D01*
X111132857Y-99702952D01*
X111228095Y-99655333D01*
X111466190Y-99655333D01*
X111561428Y-99702952D01*
X111609047Y-99750571D01*
X111656666Y-99845809D01*
X111656666Y-100083904D01*
X111609047Y-100179142D01*
X111561428Y-100226761D01*
X111466190Y-100274380D01*
X111228095Y-100274380D01*
X111132857Y-100226761D01*
X111085238Y-100179142D01*
%TO.C,TP6*%
X115070095Y-104608380D02*
X115641523Y-104608380D01*
X115355809Y-105608380D02*
X115355809Y-104608380D01*
X115974857Y-105608380D02*
X115974857Y-104608380D01*
X116355809Y-104608380D01*
X116451047Y-104656000D01*
X116498666Y-104703619D01*
X116546285Y-104798857D01*
X116546285Y-104941714D01*
X116498666Y-105036952D01*
X116451047Y-105084571D01*
X116355809Y-105132190D01*
X115974857Y-105132190D01*
X117403428Y-104608380D02*
X117212952Y-104608380D01*
X117117714Y-104656000D01*
X117070095Y-104703619D01*
X116974857Y-104846476D01*
X116927238Y-105036952D01*
X116927238Y-105417904D01*
X116974857Y-105513142D01*
X117022476Y-105560761D01*
X117117714Y-105608380D01*
X117308190Y-105608380D01*
X117403428Y-105560761D01*
X117451047Y-105513142D01*
X117498666Y-105417904D01*
X117498666Y-105179809D01*
X117451047Y-105084571D01*
X117403428Y-105036952D01*
X117308190Y-104989333D01*
X117117714Y-104989333D01*
X117022476Y-105036952D01*
X116974857Y-105084571D01*
X116927238Y-105179809D01*
%TO.C,TP7*%
X122690095Y-98004380D02*
X123261523Y-98004380D01*
X122975809Y-99004380D02*
X122975809Y-98004380D01*
X123594857Y-99004380D02*
X123594857Y-98004380D01*
X123975809Y-98004380D01*
X124071047Y-98052000D01*
X124118666Y-98099619D01*
X124166285Y-98194857D01*
X124166285Y-98337714D01*
X124118666Y-98432952D01*
X124071047Y-98480571D01*
X123975809Y-98528190D01*
X123594857Y-98528190D01*
X124499619Y-98004380D02*
X125166285Y-98004380D01*
X124737714Y-99004380D01*
%TO.C,U1*%
X87630095Y-106342380D02*
X87630095Y-107151904D01*
X87677714Y-107247142D01*
X87725333Y-107294761D01*
X87820571Y-107342380D01*
X88011047Y-107342380D01*
X88106285Y-107294761D01*
X88153904Y-107247142D01*
X88201523Y-107151904D01*
X88201523Y-106342380D01*
X89201523Y-107342380D02*
X88630095Y-107342380D01*
X88915809Y-107342380D02*
X88915809Y-106342380D01*
X88820571Y-106485238D01*
X88725333Y-106580476D01*
X88630095Y-106628095D01*
%TD*%
M02*
