%FSLAX45Y45*%
G04 Gerber Fmt 4.5, Leading zero omitted, Abs format (unit mm)*
G04 Created by KiCad (PCBNEW 5.1.6+dfsg1-1~bpo10+1) date 2020-09-26 21:27:09*
%MOMM*%
%LPD*%
G01*
G04 APERTURE LIST*
%TA.AperFunction,Profile*%
%ADD10C,0.050000*%
%TD*%
%ADD11C,0.200000*%
%ADD12C,0.300000*%
G04 APERTURE END LIST*
D10*
X7620000Y-12446000D02*
X13512800Y-12446000D01*
X7620000Y-8661400D02*
X7620000Y-12446000D01*
X13512800Y-8661400D02*
X7620000Y-8661400D01*
X13512800Y-12446000D02*
X13512800Y-8661400D01*
D11*
X7916400Y-8957800D02*
X8136400Y-9177800D01*
X8136400Y-8957800D02*
X7916400Y-9177800D01*
X12996400Y-11929600D02*
X13216400Y-12149600D01*
X13216400Y-11929600D02*
X12996400Y-12149600D01*
D12*
X7903928Y-12914214D02*
X7903928Y-12614214D01*
X7975357Y-12614214D01*
X8018214Y-12628500D01*
X8046786Y-12657071D01*
X8061071Y-12685643D01*
X8075357Y-12742786D01*
X8075357Y-12785643D01*
X8061071Y-12842786D01*
X8046786Y-12871357D01*
X8018214Y-12899929D01*
X7975357Y-12914214D01*
X7903928Y-12914214D01*
X8203928Y-12914214D02*
X8203928Y-12714214D01*
X8203928Y-12771357D02*
X8218214Y-12742786D01*
X8232500Y-12728500D01*
X8261071Y-12714214D01*
X8289643Y-12714214D01*
X8389643Y-12914214D02*
X8389643Y-12714214D01*
X8389643Y-12614214D02*
X8375357Y-12628500D01*
X8389643Y-12642786D01*
X8403928Y-12628500D01*
X8389643Y-12614214D01*
X8389643Y-12642786D01*
X8575357Y-12914214D02*
X8546786Y-12899929D01*
X8532500Y-12871357D01*
X8532500Y-12614214D01*
X8732500Y-12914214D02*
X8703928Y-12899929D01*
X8689643Y-12871357D01*
X8689643Y-12614214D01*
X9075357Y-12914214D02*
X9075357Y-12614214D01*
X9175357Y-12828500D01*
X9275357Y-12614214D01*
X9275357Y-12914214D01*
X9546786Y-12914214D02*
X9546786Y-12757071D01*
X9532500Y-12728500D01*
X9503928Y-12714214D01*
X9446786Y-12714214D01*
X9418214Y-12728500D01*
X9546786Y-12899929D02*
X9518214Y-12914214D01*
X9446786Y-12914214D01*
X9418214Y-12899929D01*
X9403928Y-12871357D01*
X9403928Y-12842786D01*
X9418214Y-12814214D01*
X9446786Y-12799929D01*
X9518214Y-12799929D01*
X9546786Y-12785643D01*
X9689643Y-12714214D02*
X9689643Y-13014214D01*
X9689643Y-12728500D02*
X9718214Y-12714214D01*
X9775357Y-12714214D01*
X9803928Y-12728500D01*
X9818214Y-12742786D01*
X9832500Y-12771357D01*
X9832500Y-12857071D01*
X9818214Y-12885643D01*
X9803928Y-12899929D01*
X9775357Y-12914214D01*
X9718214Y-12914214D01*
X9689643Y-12899929D01*
X9961071Y-12885643D02*
X9975357Y-12899929D01*
X9961071Y-12914214D01*
X9946786Y-12899929D01*
X9961071Y-12885643D01*
X9961071Y-12914214D01*
X9961071Y-12728500D02*
X9975357Y-12742786D01*
X9961071Y-12757071D01*
X9946786Y-12742786D01*
X9961071Y-12728500D01*
X9961071Y-12757071D01*
X7397500Y-13298500D02*
X7617500Y-13518500D01*
X7617500Y-13298500D02*
X7397500Y-13518500D01*
X7889643Y-13272786D02*
X7903928Y-13258500D01*
X7932500Y-13244214D01*
X8003928Y-13244214D01*
X8032500Y-13258500D01*
X8046786Y-13272786D01*
X8061071Y-13301357D01*
X8061071Y-13329929D01*
X8046786Y-13372786D01*
X7875357Y-13544214D01*
X8061071Y-13544214D01*
X8189643Y-13515643D02*
X8203928Y-13529929D01*
X8189643Y-13544214D01*
X8175357Y-13529929D01*
X8189643Y-13515643D01*
X8189643Y-13544214D01*
X8318214Y-13272786D02*
X8332500Y-13258500D01*
X8361071Y-13244214D01*
X8432500Y-13244214D01*
X8461071Y-13258500D01*
X8475357Y-13272786D01*
X8489643Y-13301357D01*
X8489643Y-13329929D01*
X8475357Y-13372786D01*
X8303928Y-13544214D01*
X8489643Y-13544214D01*
X8675357Y-13244214D02*
X8703928Y-13244214D01*
X8732500Y-13258500D01*
X8746786Y-13272786D01*
X8761071Y-13301357D01*
X8775357Y-13358500D01*
X8775357Y-13429929D01*
X8761071Y-13487071D01*
X8746786Y-13515643D01*
X8732500Y-13529929D01*
X8703928Y-13544214D01*
X8675357Y-13544214D01*
X8646786Y-13529929D01*
X8632500Y-13515643D01*
X8618214Y-13487071D01*
X8603928Y-13429929D01*
X8603928Y-13358500D01*
X8618214Y-13301357D01*
X8632500Y-13272786D01*
X8646786Y-13258500D01*
X8675357Y-13244214D01*
X8903928Y-13544214D02*
X8903928Y-13344214D01*
X8903928Y-13372786D02*
X8918214Y-13358500D01*
X8946786Y-13344214D01*
X8989643Y-13344214D01*
X9018214Y-13358500D01*
X9032500Y-13387071D01*
X9032500Y-13544214D01*
X9032500Y-13387071D02*
X9046786Y-13358500D01*
X9075357Y-13344214D01*
X9118214Y-13344214D01*
X9146786Y-13358500D01*
X9161071Y-13387071D01*
X9161071Y-13544214D01*
X9303928Y-13544214D02*
X9303928Y-13344214D01*
X9303928Y-13372786D02*
X9318214Y-13358500D01*
X9346786Y-13344214D01*
X9389643Y-13344214D01*
X9418214Y-13358500D01*
X9432500Y-13387071D01*
X9432500Y-13544214D01*
X9432500Y-13387071D02*
X9446786Y-13358500D01*
X9475357Y-13344214D01*
X9518214Y-13344214D01*
X9546786Y-13358500D01*
X9561071Y-13387071D01*
X9561071Y-13544214D01*
X10146786Y-13229929D02*
X9889643Y-13615643D01*
X10532500Y-13244214D02*
X10561071Y-13244214D01*
X10589643Y-13258500D01*
X10603928Y-13272786D01*
X10618214Y-13301357D01*
X10632500Y-13358500D01*
X10632500Y-13429929D01*
X10618214Y-13487071D01*
X10603928Y-13515643D01*
X10589643Y-13529929D01*
X10561071Y-13544214D01*
X10532500Y-13544214D01*
X10503928Y-13529929D01*
X10489643Y-13515643D01*
X10475357Y-13487071D01*
X10461071Y-13429929D01*
X10461071Y-13358500D01*
X10475357Y-13301357D01*
X10489643Y-13272786D01*
X10503928Y-13258500D01*
X10532500Y-13244214D01*
X10761071Y-13515643D02*
X10775357Y-13529929D01*
X10761071Y-13544214D01*
X10746786Y-13529929D01*
X10761071Y-13515643D01*
X10761071Y-13544214D01*
X10961071Y-13244214D02*
X10989643Y-13244214D01*
X11018214Y-13258500D01*
X11032500Y-13272786D01*
X11046786Y-13301357D01*
X11061071Y-13358500D01*
X11061071Y-13429929D01*
X11046786Y-13487071D01*
X11032500Y-13515643D01*
X11018214Y-13529929D01*
X10989643Y-13544214D01*
X10961071Y-13544214D01*
X10932500Y-13529929D01*
X10918214Y-13515643D01*
X10903928Y-13487071D01*
X10889643Y-13429929D01*
X10889643Y-13358500D01*
X10903928Y-13301357D01*
X10918214Y-13272786D01*
X10932500Y-13258500D01*
X10961071Y-13244214D01*
X11232500Y-13372786D02*
X11203928Y-13358500D01*
X11189643Y-13344214D01*
X11175357Y-13315643D01*
X11175357Y-13301357D01*
X11189643Y-13272786D01*
X11203928Y-13258500D01*
X11232500Y-13244214D01*
X11289643Y-13244214D01*
X11318214Y-13258500D01*
X11332500Y-13272786D01*
X11346786Y-13301357D01*
X11346786Y-13315643D01*
X11332500Y-13344214D01*
X11318214Y-13358500D01*
X11289643Y-13372786D01*
X11232500Y-13372786D01*
X11203928Y-13387071D01*
X11189643Y-13401357D01*
X11175357Y-13429929D01*
X11175357Y-13487071D01*
X11189643Y-13515643D01*
X11203928Y-13529929D01*
X11232500Y-13544214D01*
X11289643Y-13544214D01*
X11318214Y-13529929D01*
X11332500Y-13515643D01*
X11346786Y-13487071D01*
X11346786Y-13429929D01*
X11332500Y-13401357D01*
X11318214Y-13387071D01*
X11289643Y-13372786D01*
X11446786Y-13244214D02*
X11646786Y-13244214D01*
X11518214Y-13544214D01*
X11746786Y-13244214D02*
X11746786Y-13301357D01*
X11861071Y-13244214D02*
X11861071Y-13301357D01*
X12303928Y-13658500D02*
X12289643Y-13644214D01*
X12261071Y-13601357D01*
X12246786Y-13572786D01*
X12232500Y-13529929D01*
X12218214Y-13458500D01*
X12218214Y-13401357D01*
X12232500Y-13329929D01*
X12246786Y-13287071D01*
X12261071Y-13258500D01*
X12289643Y-13215643D01*
X12303928Y-13201357D01*
X12403928Y-13272786D02*
X12418214Y-13258500D01*
X12446786Y-13244214D01*
X12518214Y-13244214D01*
X12546786Y-13258500D01*
X12561071Y-13272786D01*
X12575357Y-13301357D01*
X12575357Y-13329929D01*
X12561071Y-13372786D01*
X12389643Y-13544214D01*
X12575357Y-13544214D01*
X12932500Y-13544214D02*
X12932500Y-13244214D01*
X13061071Y-13544214D02*
X13061071Y-13387071D01*
X13046786Y-13358500D01*
X13018214Y-13344214D01*
X12975357Y-13344214D01*
X12946786Y-13358500D01*
X12932500Y-13372786D01*
X13246786Y-13544214D02*
X13218214Y-13529929D01*
X13203928Y-13515643D01*
X13189643Y-13487071D01*
X13189643Y-13401357D01*
X13203928Y-13372786D01*
X13218214Y-13358500D01*
X13246786Y-13344214D01*
X13289643Y-13344214D01*
X13318214Y-13358500D01*
X13332500Y-13372786D01*
X13346786Y-13401357D01*
X13346786Y-13487071D01*
X13332500Y-13515643D01*
X13318214Y-13529929D01*
X13289643Y-13544214D01*
X13246786Y-13544214D01*
X13518214Y-13544214D02*
X13489643Y-13529929D01*
X13475357Y-13501357D01*
X13475357Y-13244214D01*
X13746786Y-13529929D02*
X13718214Y-13544214D01*
X13661071Y-13544214D01*
X13632500Y-13529929D01*
X13618214Y-13501357D01*
X13618214Y-13387071D01*
X13632500Y-13358500D01*
X13661071Y-13344214D01*
X13718214Y-13344214D01*
X13746786Y-13358500D01*
X13761071Y-13387071D01*
X13761071Y-13415643D01*
X13618214Y-13444214D01*
X13875357Y-13529929D02*
X13903928Y-13544214D01*
X13961071Y-13544214D01*
X13989643Y-13529929D01*
X14003928Y-13501357D01*
X14003928Y-13487071D01*
X13989643Y-13458500D01*
X13961071Y-13444214D01*
X13918214Y-13444214D01*
X13889643Y-13429929D01*
X13875357Y-13401357D01*
X13875357Y-13387071D01*
X13889643Y-13358500D01*
X13918214Y-13344214D01*
X13961071Y-13344214D01*
X13989643Y-13358500D01*
X14103928Y-13658500D02*
X14118214Y-13644214D01*
X14146786Y-13601357D01*
X14161071Y-13572786D01*
X14175357Y-13529929D01*
X14189643Y-13458500D01*
X14189643Y-13401357D01*
X14175357Y-13329929D01*
X14161071Y-13287071D01*
X14146786Y-13258500D01*
X14118214Y-13215643D01*
X14103928Y-13201357D01*
X14646786Y-13658500D02*
X14632500Y-13644214D01*
X14603928Y-13601357D01*
X14589643Y-13572786D01*
X14575357Y-13529929D01*
X14561071Y-13458500D01*
X14561071Y-13401357D01*
X14575357Y-13329929D01*
X14589643Y-13287071D01*
X14603928Y-13258500D01*
X14632500Y-13215643D01*
X14646786Y-13201357D01*
X14761071Y-13344214D02*
X14761071Y-13544214D01*
X14761071Y-13372786D02*
X14775357Y-13358500D01*
X14803928Y-13344214D01*
X14846786Y-13344214D01*
X14875357Y-13358500D01*
X14889643Y-13387071D01*
X14889643Y-13544214D01*
X15075357Y-13544214D02*
X15046786Y-13529929D01*
X15032500Y-13515643D01*
X15018214Y-13487071D01*
X15018214Y-13401357D01*
X15032500Y-13372786D01*
X15046786Y-13358500D01*
X15075357Y-13344214D01*
X15118214Y-13344214D01*
X15146786Y-13358500D01*
X15161071Y-13372786D01*
X15175357Y-13401357D01*
X15175357Y-13487071D01*
X15161071Y-13515643D01*
X15146786Y-13529929D01*
X15118214Y-13544214D01*
X15075357Y-13544214D01*
X15261071Y-13344214D02*
X15375357Y-13344214D01*
X15303928Y-13244214D02*
X15303928Y-13501357D01*
X15318214Y-13529929D01*
X15346786Y-13544214D01*
X15375357Y-13544214D01*
X15703928Y-13344214D02*
X15703928Y-13644214D01*
X15703928Y-13358500D02*
X15732500Y-13344214D01*
X15789643Y-13344214D01*
X15818214Y-13358500D01*
X15832500Y-13372786D01*
X15846786Y-13401357D01*
X15846786Y-13487071D01*
X15832500Y-13515643D01*
X15818214Y-13529929D01*
X15789643Y-13544214D01*
X15732500Y-13544214D01*
X15703928Y-13529929D01*
X16018214Y-13544214D02*
X15989643Y-13529929D01*
X15975357Y-13501357D01*
X15975357Y-13244214D01*
X16261071Y-13544214D02*
X16261071Y-13387071D01*
X16246786Y-13358500D01*
X16218214Y-13344214D01*
X16161071Y-13344214D01*
X16132500Y-13358500D01*
X16261071Y-13529929D02*
X16232500Y-13544214D01*
X16161071Y-13544214D01*
X16132500Y-13529929D01*
X16118214Y-13501357D01*
X16118214Y-13472786D01*
X16132500Y-13444214D01*
X16161071Y-13429929D01*
X16232500Y-13429929D01*
X16261071Y-13415643D01*
X16361071Y-13344214D02*
X16475357Y-13344214D01*
X16403928Y-13244214D02*
X16403928Y-13501357D01*
X16418214Y-13529929D01*
X16446786Y-13544214D01*
X16475357Y-13544214D01*
X16689643Y-13529929D02*
X16661071Y-13544214D01*
X16603928Y-13544214D01*
X16575357Y-13529929D01*
X16561071Y-13501357D01*
X16561071Y-13387071D01*
X16575357Y-13358500D01*
X16603928Y-13344214D01*
X16661071Y-13344214D01*
X16689643Y-13358500D01*
X16703928Y-13387071D01*
X16703928Y-13415643D01*
X16561071Y-13444214D01*
X16961071Y-13544214D02*
X16961071Y-13244214D01*
X16961071Y-13529929D02*
X16932500Y-13544214D01*
X16875357Y-13544214D01*
X16846786Y-13529929D01*
X16832500Y-13515643D01*
X16818214Y-13487071D01*
X16818214Y-13401357D01*
X16832500Y-13372786D01*
X16846786Y-13358500D01*
X16875357Y-13344214D01*
X16932500Y-13344214D01*
X16961071Y-13358500D01*
X17075357Y-13658500D02*
X17089643Y-13644214D01*
X17118214Y-13601357D01*
X17132500Y-13572786D01*
X17146786Y-13529929D01*
X17161071Y-13458500D01*
X17161071Y-13401357D01*
X17146786Y-13329929D01*
X17132500Y-13287071D01*
X17118214Y-13258500D01*
X17089643Y-13215643D01*
X17075357Y-13201357D01*
M02*
